{
  "type": "object",
  "properties": {
    "uid": {
      "type": "string"
    },
    "annualIncreasePercent": {
      "type": "number"
    },
    "contributionFrequency": {
      "$ref": "contribution-frequency-0.1.0.json"
    },
    "paymentDayOfMonth": {
      "type": "integer"
    },
    "paymentMonthOfYear": {
      "type": "integer"
    },
    "startDate": {
      "type": "string",
      "pattern": "^(\\d{4})-(\\d{2})-(\\d{2})$"
    },
    "endDate": {
      "type": "string",
      "pattern": "^(\\d{4})-(\\d{2})-(\\d{2})$"
    }
  },
  "additionalProperties": true,
  "required": [
    "uid",
    "contributionFrequency",
    "startDate",
    "endDate"
  ],
  "$schema": "http://json-schema.org/draft-06/schema#"
}
