{
  "type": "object",
  "properties": {
    "federal": {
      "type": "number"
    },
    "federalPct": {
      "type": "number"
    },
    "federalType": {
      "$ref": "withholding-type-0.1.0.json"
    },
    "federalAmount": {
      "type": "number"
    },
    "state": {
      "type": "number"
    },
    "stateType": {
      "$ref": "withholding-type-0.1.0.json"
    },
    "statePct": {
      "type": "number"
    },
    "stateAmount": {
      "type": "number"
    },
    "allowances": {
      "type": "number"
    },
    "additionalAmount": {
      "type": "number"
    },
    "maritalStatus": {
      "$ref": "marital-status-0.1.0.json"
    }
  },
  "additionalProperties": true,
  "required": [
    "federal",
    "federalType",
    "state",
    "stateType"
  ],
  "$schema": "http://json-schema.org/draft-06/schema#"
}
